{
  "datacenter": "mbtx",
  "data_dir": "/var/run/consul/data",
  "log_level": "INFO",
  "server": true,
  "ui": true,
  "bootstrap_expect": 0,
  "bootstrap": true,
  "addresses": {
    "https": "0.0.0.0",
    "http": "unix:///var/run/consul/consul.socket"

  },
"ports": {
    "https": 8080
  },
  "key_file": "/etc/pki/tls/private/my.key",
  "cert_file": "/etc/pki/tls/certs/my.crt",
  "ca_file": "/etc/pki/tls/certs/ca-bundle.crt",
  "ca_path": "/etc/ssl/certs",
"recursors": ["8.8.8.8"],
"client_addr": "0.0.0.0",
"bind_addr": "0.0.0.0",
"acl_master_token": "b1gs33sdfsdfcr3t",
  "acl_default_policy": "deny",
   "node_meta": {
        "instance_type": "test"
    }
}

